// Jest Snapshot v1, https://goo.gl/fbAQLP

exports[`Room should match the snapshot 1`] = `
<Col
  key="1"
>
  <Card
    disabled={false}
  >
    <Room__RoomHeader>
      <Heading
        type="title3"
      >
        Room 
        1
      </Heading>
      <ForwardRef
        checked={true}
        name="roomEnabled"
        onChange={[Function]}
        readOnly={false}
        value="enabled"
      />
    </Room__RoomHeader>
    <ForwardRef
      disabled={false}
      label="Adult(18+)"
      name="adults"
      onChange={[Function]}
      options={
        Array [
          Object {
            "disabled": false,
            "label": "1",
            "value": "1",
          },
          Object {
            "disabled": false,
            "label": "2",
            "value": "2",
          },
        ]
      }
      value="1"
    />
    <ForwardRef
      disabled={false}
      label="Children(0-17)"
      name="children"
      onChange={[Function]}
      options={
        Array [
          Object {
            "disabled": false,
            "label": "0",
            "value": "0",
          },
          Object {
            "disabled": false,
            "label": "1",
            "value": "1",
          },
          Object {
            "disabled": false,
            "label": "2",
            "value": "2",
          },
        ]
      }
      value="1"
    />
  </Card>
</Col>
`;
